\babel@toc {spanish}{}
\beamer@sectionintoc {2}{Introducción}{3}{0}{1}
\beamer@sectionintoc {3}{Marco Teórico}{5}{0}{2}
\beamer@sectionintoc {4}{Objetivos}{22}{0}{3}
\beamer@sectionintoc {5}{Justificación}{24}{0}{4}
\beamer@sectionintoc {6}{Metodología}{25}{0}{5}
\contentsline {section}{Referencias}
