\relax 
\providecommand\hyper@newdestlabel[2]{}
\providecommand\HyperFirstAtBeginDocument{\AtBeginDocument}
\HyperFirstAtBeginDocument{\ifx\hyper@anchor\@undefined
\global\let\oldcontentsline\contentsline
\gdef\contentsline#1#2#3#4{\oldcontentsline{#1}{#2}{#3}}
\global\let\oldnewlabel\newlabel
\gdef\newlabel#1#2{\newlabelxx{#1}#2}
\gdef\newlabelxx#1#2#3#4#5#6{\oldnewlabel{#1}{{#2}{#3}}}
\AtEndDocument{\ifx\hyper@anchor\@undefined
\let\contentsline\oldcontentsline
\let\newlabel\oldnewlabel
\fi}
\fi}
\global\let\hyper@last\relax 
\gdef\HyperFirstAtBeginDocument#1{#1}
\providecommand\HyField@AuxAddToFields[1]{}
\providecommand\HyField@AuxAddToCoFields[2]{}
\providecommand\babel@aux[2]{}
\@nameuse{bbl@beforestart}
\catcode `"\active 
\catcode `<\active 
\catcode `>\active 
\@nameuse{es@quoting}
\babel@aux{spanish}{}
\@writefile{nav}{\headcommand {\slideentry {0}{0}{1}{1/1}{}{0}}}
\@writefile{nav}{\headcommand {\beamer@framepages {1}{1}}}
\@writefile{nav}{\headcommand {\beamer@sectionpages {1}{1}}}
\@writefile{nav}{\headcommand {\beamer@subsectionpages {1}{1}}}
\@writefile{nav}{\headcommand {\sectionentry {1}{Indice}{2}{Indice}{0}}}
\@writefile{nav}{\headcommand {\slideentry {1}{0}{1}{2/2}{}{0}}}
\@writefile{nav}{\headcommand {\beamer@framepages {2}{2}}}
\@writefile{toc}{\beamer@sectionintoc {2}{Introducción}{3}{0}{1}}
\@writefile{nav}{\headcommand {\beamer@sectionpages {2}{2}}}
\@writefile{nav}{\headcommand {\beamer@subsectionpages {2}{2}}}
\@writefile{nav}{\headcommand {\sectionentry {2}{Introducción}{3}{Introducción}{0}}}
\@writefile{nav}{\headcommand {\slideentry {2}{0}{1}{3/3}{}{0}}}
\@writefile{nav}{\headcommand {\beamer@framepages {3}{3}}}
\@writefile{nav}{\headcommand {\slideentry {2}{0}{2}{4/4}{}{0}}}
\@writefile{nav}{\headcommand {\beamer@framepages {4}{4}}}
\citation{Paras}
\@writefile{toc}{\beamer@sectionintoc {3}{Marco Teórico}{5}{0}{2}}
\@writefile{nav}{\headcommand {\beamer@sectionpages {3}{4}}}
\@writefile{nav}{\headcommand {\beamer@subsectionpages {3}{4}}}
\@writefile{nav}{\headcommand {\sectionentry {3}{Marco Teórico}{5}{Marco Teórico}{0}}}
\providecommand*\caption@xref[2]{\@setref\relax\@undefined{#1}}
\newlabel{fig:renal}{{\caption@xref {fig:renal}{ on input line 181}}{5}{Marco Teórico}{Doc-Start}{}}
\@writefile{snm}{\beamer@slide {fig:renal}{5}}
\@writefile{nav}{\headcommand {\slideentry {3}{0}{1}{5/5}{}{0}}}
\@writefile{nav}{\headcommand {\beamer@framepages {5}{5}}}
\citation{Diagnost}
\newlabel{fig:sample}{{\caption@xref {fig:sample}{ on input line 199}}{6}{Marco Teórico}{Doc-Start}{}}
\@writefile{snm}{\beamer@slide {fig:sample}{6}}
\@writefile{nav}{\headcommand {\slideentry {3}{0}{2}{6/6}{}{0}}}
\@writefile{nav}{\headcommand {\beamer@framepages {6}{6}}}
\citation{Util}
\newlabel{fig:frascos}{{\caption@xref {fig:frascos}{ on input line 226}}{7}{Marco Teórico}{Doc-Start}{}}
\@writefile{snm}{\beamer@slide {fig:frascos}{7}}
\@writefile{nav}{\headcommand {\slideentry {3}{0}{3}{7/7}{}{0}}}
\@writefile{nav}{\headcommand {\beamer@framepages {7}{7}}}
\citation{Serial}
\citation{Serial}
\newlabel{fig:flujo1}{{2}{8}{\tiny Flujo de trabajo para la realización del examen parasitológico seriado de deposiciones \cite {Serial}.\relax }{Doc-Start}{}}
\@writefile{snm}{\beamer@slide {fig:flujo1}{8}}
\@writefile{nav}{\headcommand {\slideentry {3}{0}{4}{8/8}{}{0}}}
\@writefile{nav}{\headcommand {\beamer@framepages {8}{8}}}
\newlabel{fig:micro}{{3}{9}{Ejemplos de barrido del microscopio sobre la muestra.\relax }{Doc-Start}{}}
\@writefile{snm}{\beamer@slide {fig:micro}{9}}
\@writefile{nav}{\headcommand {\slideentry {3}{0}{5}{9/9}{}{0}}}
\@writefile{nav}{\headcommand {\beamer@framepages {9}{9}}}
\newlabel{fig:parasite}{{4}{10}{\tiny Ejemplo de las 9 especies más comunes: (a) Enterobius vermicularis; (b) Trichuris trichiura; (c) Hymenolepis nana; (d) Taenia spp.; (e) Ascaris lumbricoides; (f) Ancylostomatidae; (g) Hymenolepis diminuta; (h) Schistosoma mansoni; (i) Strongyloides stercoralis larvae.\relax }{Doc-Start}{}}
\@writefile{snm}{\beamer@slide {fig:parasite}{10}}
\@writefile{nav}{\headcommand {\slideentry {3}{0}{6}{10/10}{}{0}}}
\@writefile{nav}{\headcommand {\beamer@framepages {10}{10}}}
\citation{IBM}
\newlabel{fig:vision}{{\caption@xref {fig:vision}{ on input line 296}}{11}{Marco Teórico}{Doc-Start}{}}
\@writefile{snm}{\beamer@slide {fig:vision}{11}}
\@writefile{nav}{\headcommand {\slideentry {3}{0}{7}{11/11}{}{0}}}
\@writefile{nav}{\headcommand {\beamer@framepages {11}{11}}}
\citation{Prince}
\@writefile{nav}{\headcommand {\slideentry {3}{0}{8}{12/12}{}{0}}}
\@writefile{nav}{\headcommand {\beamer@framepages {12}{12}}}
\citation{MLClass}
\newlabel{fig:obclass}{{5}{13}{\tiny Ejemplos de tipo de clasificación\relax }{Doc-Start}{}}
\@writefile{snm}{\beamer@slide {fig:obclass}{13}}
\@writefile{nav}{\headcommand {\slideentry {3}{0}{9}{13/13}{}{0}}}
\@writefile{nav}{\headcommand {\beamer@framepages {13}{13}}}
\citation{Probab}
\citation{Probab}
\newlabel{fig:sigmoid}{{6}{14}{\tiny Gráfica de la función sigmoidea \cite {Probab}\relax }{Doc-Start}{}}
\@writefile{snm}{\beamer@slide {fig:sigmoid}{14}}
\@writefile{nav}{\headcommand {\slideentry {3}{0}{10}{14/14}{}{0}}}
\@writefile{nav}{\headcommand {\beamer@framepages {14}{14}}}
\citation{LogicR}
\newlabel{fig:logistic}{{\caption@xref {fig:logistic}{ on input line 347}}{15}{Marco Teórico}{Doc-Start}{}}
\@writefile{snm}{\beamer@slide {fig:logistic}{15}}
\@writefile{nav}{\headcommand {\slideentry {3}{0}{11}{15/15}{}{0}}}
\@writefile{nav}{\headcommand {\beamer@framepages {15}{15}}}
\citation{Bayes}
\newlabel{fig:bayes}{{\caption@xref {fig:bayes}{ on input line 359}}{16}{Marco Teórico}{Doc-Start}{}}
\@writefile{snm}{\beamer@slide {fig:bayes}{16}}
\@writefile{nav}{\headcommand {\slideentry {3}{0}{12}{16/16}{}{0}}}
\@writefile{nav}{\headcommand {\beamer@framepages {16}{16}}}
\citation{Trees}
\newlabel{fig:tree}{{\caption@xref {fig:tree}{ on input line 372}}{17}{Marco Teórico}{Doc-Start}{}}
\@writefile{snm}{\beamer@slide {fig:tree}{17}}
\@writefile{nav}{\headcommand {\slideentry {3}{0}{13}{17/17}{}{0}}}
\@writefile{nav}{\headcommand {\beamer@framepages {17}{17}}}
\citation{Forest}
\citation{Forest}
\newlabel{fig:forest}{{7}{18}{\tiny Ejemplo generar de la votación de un bosque aleatorio cualquiera \cite {Forest}\relax }{Doc-Start}{}}
\@writefile{snm}{\beamer@slide {fig:forest}{18}}
\@writefile{nav}{\headcommand {\slideentry {3}{0}{14}{18/18}{}{0}}}
\@writefile{nav}{\headcommand {\beamer@framepages {18}{18}}}
\citation{Manage}
\newlabel{fig:image}{{\caption@xref {fig:image}{ on input line 397}}{19}{Marco Teórico}{Doc-Start}{}}
\@writefile{snm}{\beamer@slide {fig:image}{19}}
\@writefile{nav}{\headcommand {\slideentry {3}{0}{15}{19/19}{}{0}}}
\@writefile{nav}{\headcommand {\beamer@framepages {19}{19}}}
\citation{Clean}
\newlabel{fig:dataset}{{\caption@xref {fig:dataset}{ on input line 409}}{20}{Marco Teórico}{Doc-Start}{}}
\@writefile{snm}{\beamer@slide {fig:dataset}{20}}
\@writefile{nav}{\headcommand {\slideentry {3}{0}{16}{20/20}{}{0}}}
\@writefile{nav}{\headcommand {\beamer@framepages {20}{20}}}
\citation{Augment}
\newlabel{fig:dataaugmen}{{\caption@xref {fig:dataaugmen}{ on input line 430}}{21}{Marco Teórico}{Doc-Start}{}}
\@writefile{snm}{\beamer@slide {fig:dataaugmen}{21}}
\@writefile{nav}{\headcommand {\slideentry {3}{0}{17}{21/21}{}{0}}}
\@writefile{nav}{\headcommand {\beamer@framepages {21}{21}}}
\@writefile{toc}{\beamer@sectionintoc {4}{Objetivos}{22}{0}{3}}
\@writefile{nav}{\headcommand {\beamer@sectionpages {5}{21}}}
\@writefile{nav}{\headcommand {\beamer@subsectionpages {5}{21}}}
\@writefile{nav}{\headcommand {\sectionentry {4}{Objetivos}{22}{Objetivos}{0}}}
\@writefile{nav}{\headcommand {\slideentry {4}{0}{1}{22/22}{}{0}}}
\@writefile{nav}{\headcommand {\beamer@framepages {22}{22}}}
\@writefile{nav}{\headcommand {\slideentry {4}{0}{2}{23/23}{}{0}}}
\@writefile{nav}{\headcommand {\beamer@framepages {23}{23}}}
\@writefile{toc}{\beamer@sectionintoc {5}{Justificación}{24}{0}{4}}
\@writefile{nav}{\headcommand {\beamer@sectionpages {22}{23}}}
\@writefile{nav}{\headcommand {\beamer@subsectionpages {22}{23}}}
\@writefile{nav}{\headcommand {\sectionentry {5}{Justificación}{24}{Justificación}{0}}}
\@writefile{nav}{\headcommand {\slideentry {5}{0}{1}{24/24}{}{0}}}
\@writefile{nav}{\headcommand {\beamer@framepages {24}{24}}}
\@writefile{toc}{\beamer@sectionintoc {6}{Metodología}{25}{0}{5}}
\@writefile{nav}{\headcommand {\beamer@sectionpages {24}{24}}}
\@writefile{nav}{\headcommand {\beamer@subsectionpages {24}{24}}}
\@writefile{nav}{\headcommand {\sectionentry {6}{Metodología}{25}{Metodología}{0}}}
\@writefile{nav}{\headcommand {\slideentry {6}{0}{1}{25/25}{}{0}}}
\@writefile{nav}{\headcommand {\beamer@framepages {25}{25}}}
\@writefile{nav}{\headcommand {\slideentry {6}{0}{2}{26/26}{}{0}}}
\@writefile{nav}{\headcommand {\beamer@framepages {26}{26}}}
\@writefile{nav}{\headcommand {\slideentry {6}{0}{3}{27/27}{}{0}}}
\@writefile{nav}{\headcommand {\beamer@framepages {27}{27}}}
\newlabel{fig:gantt}{{8}{28}{\tiny Actividades relacionadas a los objetivos específicos desde el mes de Abril a Diciembre\relax }{Doc-Start}{}}
\@writefile{snm}{\beamer@slide {fig:gantt}{28}}
\@writefile{nav}{\headcommand {\slideentry {6}{0}{4}{28/28}{}{0}}}
\@writefile{nav}{\headcommand {\beamer@framepages {28}{28}}}
\@writefile{nav}{\headcommand {\slideentry {6}{0}{5}{29/29}{}{0}}}
\@writefile{nav}{\headcommand {\beamer@framepages {29}{29}}}
\bibstyle{apacite}
\bibdata{document.bib}
\bibcite{Clean}{\citeauthoryear {Byjus}{Byjus}{{\APACyear {2012}}{\APACexlab {{\BCnt {1}}}}}}
\APACbibcite{Clean}{\citeauthoryear {Byjus}{Byjus}{{\APACyear {2012}}{\APACexlab {{\BCnt {1}}}}}}
\bibcite{Manage}{\citeauthoryear {Byjus}{Byjus}{{\APACyear {2012}}{\APACexlab {{\BCnt {2}}}}}}
\APACbibcite{Manage}{\citeauthoryear {Byjus}{Byjus}{{\APACyear {2012}}{\APACexlab {{\BCnt {2}}}}}}
\bibcite{Diagnost}{\citeauthoryear {CDC}{CDC}{{\APACyear {2016}}}}
\APACbibcite{Diagnost}{\citeauthoryear {CDC}{CDC}{{\APACyear {2016}}}}
\bibcite{Paras}{\citeauthoryear {FE.}{FE.}{{\APACyear {2002}}}}
\APACbibcite{Paras}{\citeauthoryear {FE.}{FE.}{{\APACyear {2002}}}}
\bibcite{MLClass}{\citeauthoryear {Fuchs}{Fuchs}{{\APACyear {2017}}}}
\APACbibcite{MLClass}{\citeauthoryear {Fuchs}{Fuchs}{{\APACyear {2017}}}}
\bibcite{LogicR}{\citeauthoryear {Geert}{Geert}{{\APACyear {2020}}}}
\APACbibcite{LogicR}{\citeauthoryear {Geert}{Geert}{{\APACyear {2020}}}}
\bibcite{Forest}{\citeauthoryear {Ho}{Ho}{{\APACyear {2016}}}}
\APACbibcite{Forest}{\citeauthoryear {Ho}{Ho}{{\APACyear {2016}}}}
\bibcite{Util}{\citeauthoryear {Huapaya}{Huapaya}{{\APACyear {2002}}}}
\APACbibcite{Util}{\citeauthoryear {Huapaya}{Huapaya}{{\APACyear {2002}}}}
\bibcite{IBM}{\citeauthoryear {IBM}{IBM}{{\APACyear {2020}}}}
\APACbibcite{IBM}{\citeauthoryear {IBM}{IBM}{{\APACyear {2020}}}}
\bibcite{Serial}{\citeauthoryear {Jercic}{Jercic}{{\APACyear {2017}}}}
\APACbibcite{Serial}{\citeauthoryear {Jercic}{Jercic}{{\APACyear {2017}}}}
\bibcite{Augment}{\citeauthoryear {K}{K}{{\APACyear {2020}}}}
\APACbibcite{Augment}{\citeauthoryear {K}{K}{{\APACyear {2020}}}}
\bibcite{Prince}{\citeauthoryear {Prince}{Prince}{{\APACyear {2012}}}}
\APACbibcite{Prince}{\citeauthoryear {Prince}{Prince}{{\APACyear {2012}}}}
\bibcite{Bayes}{\citeauthoryear {Rennie}{Rennie}{{\APACyear {2003}}}}
\APACbibcite{Bayes}{\citeauthoryear {Rennie}{Rennie}{{\APACyear {2003}}}}
\bibcite{Trees}{\citeauthoryear {Rokach}{Rokach}{{\APACyear {2007}}}}
\APACbibcite{Trees}{\citeauthoryear {Rokach}{Rokach}{{\APACyear {2007}}}}
\bibcite{Probab}{\citeauthoryear {Tiño}{Tiño}{{\APACyear {2016}}}}
\APACbibcite{Probab}{\citeauthoryear {Tiño}{Tiño}{{\APACyear {2016}}}}
\@writefile{nav}{\headcommand {\beamer@sectionpages {25}{29}}}
\@writefile{nav}{\headcommand {\beamer@subsectionpages {25}{29}}}
\@writefile{nav}{\headcommand {\sectionentry {7}{Referencias}{30}{Referencias}{0}}}
\@writefile{toc}{\contentsline {section}{Referencias}}
\@writefile{nav}{\headcommand {\slideentry {7}{0}{0}{30/30}{}{0}}}
\@writefile{nav}{\headcommand {\beamer@framepages {30}{30}}}
\@writefile{nav}{\headcommand {\beamer@partpages {1}{30}}}
\@writefile{nav}{\headcommand {\beamer@subsectionpages {25}{30}}}
\@writefile{nav}{\headcommand {\beamer@sectionpages {25}{30}}}
\@writefile{nav}{\headcommand {\beamer@documentpages {30}}}
\@writefile{nav}{\headcommand {\gdef \inserttotalframenumber {30}}}
\gdef \@abspage@last{30}
