# Fdb version 3
["bibtex Propuesta"] 1630172668 "Propuesta.aux" "Propuesta.bbl" "Propuesta" 1630183451
  "/usr/share/texlive/texmf-dist/bibtex/bst/apacite/apacite.bst" 1374530685 141073 9d7b79dbf9d91133318126032cff8c27 ""
  "Propuesta.aux" 1630183450 12434 0cbc959ac44fa1b7f80f26154c0e21d2 "pdflatex"
  "document.bib" 1629904982 8355 735813e663d3ac162176c516fe4c37f2 ""
  (generated)
  "Propuesta.bbl"
  "Propuesta.blg"
["pdflatex"] 1630183445 "Propuesta.tex" "Propuesta.pdf" "Propuesta" 1630183451
  "/etc/texmf/web2c/texmf.cnf" 1625335746 475 c0e671620eb5563b2130f56340a5fde8 ""
  "/usr/share/texlive/texmf-dist/fonts/enc/dvips/base/8r.enc" 1165713224 4850 80dc9bab7f31fb78a000ccfed0e27cab ""
  "/usr/share/texlive/texmf-dist/fonts/enc/dvips/roboto/rbto_b5rac7.enc" 1576101225 3075 0696ceafc85b8352a913efb9ba64bc17 ""
  "/usr/share/texlive/texmf-dist/fonts/enc/dvips/roboto/rbto_schjax.enc" 1576101225 2974 729e60f1953f7d28deb744dead16208c ""
  "/usr/share/texlive/texmf-dist/fonts/enc/dvips/roboto/rbto_shbyjm.enc" 1576101225 3538 3cc15b33463d791b3c295db15d04bbd6 ""
  "/usr/share/texlive/texmf-dist/fonts/map/fontname/texfonts.map" 1577235249 3524 cb3e574dea2d1052e39280babc910dc8 ""
  "/usr/share/texlive/texmf-dist/fonts/tfm/adobe/courier/pcrr8r.tfm" 1136768653 1292 bd42be2f344128bff6d35d98474adfe3 ""
  "/usr/share/texlive/texmf-dist/fonts/tfm/adobe/courier/pcrr8t.tfm" 1136768653 1384 4632f5e54900a7dadbb83f555bc61e56 ""
  "/usr/share/texlive/texmf-dist/fonts/tfm/adobe/courier/pcrrc8t.tfm" 1136768653 1400 117a19289003b123eadbb781b106b7a9 ""
  "/usr/share/texlive/texmf-dist/fonts/tfm/adobe/helvetic/phvr8t.tfm" 1136768653 7040 b2bd27e2bfe6f6948cbc3239cae7444f ""
  "/usr/share/texlive/texmf-dist/fonts/tfm/google/roboto/Roboto-Bold-lf-sc-t1--base.tfm" 1576101225 1780 b082c523df14edcbf96aa4562248bdbe ""
  "/usr/share/texlive/texmf-dist/fonts/tfm/google/roboto/Roboto-Bold-lf-sc-t1.tfm" 1576101225 10552 0fd26bce53bd38236197b354f90cabbd ""
  "/usr/share/texlive/texmf-dist/fonts/tfm/google/roboto/Roboto-Bold-lf-t1--base.tfm" 1576101225 1840 1834297dad21c65d0f959ffe1bfe4fbd ""
  "/usr/share/texlive/texmf-dist/fonts/tfm/google/roboto/Roboto-Bold-lf-t1.tfm" 1576101225 19236 85987f923c1581c8950d7394f58a8506 ""
  "/usr/share/texlive/texmf-dist/fonts/tfm/google/roboto/Roboto-Italic-lf-t1--base.tfm" 1576101225 1916 97abf78b9ad367c488d8676aaae93540 ""
  "/usr/share/texlive/texmf-dist/fonts/tfm/google/roboto/Roboto-Italic-lf-t1.tfm" 1576101225 19136 8f0a6bce6b7c437dc2eb9a7bd5b79ab0 ""
  "/usr/share/texlive/texmf-dist/fonts/tfm/google/roboto/Roboto-Regular-lf-ot1.tfm" 1576101225 5064 62452f6193e2fe19100725f3c8c44b52 ""
  "/usr/share/texlive/texmf-dist/fonts/tfm/google/roboto/Roboto-Regular-lf-sc-t1--base.tfm" 1576101225 1764 d405096d84c206e0c64e97503d1b8f0a ""
  "/usr/share/texlive/texmf-dist/fonts/tfm/google/roboto/Roboto-Regular-lf-sc-t1.tfm" 1576101225 10532 9e19695d22f5d87263cfc8a2de8a22ab ""
  "/usr/share/texlive/texmf-dist/fonts/tfm/google/roboto/Roboto-Regular-lf-t1--base.tfm" 1576101225 1784 cc050d6ef8035429518218306a7dbf9d ""
  "/usr/share/texlive/texmf-dist/fonts/tfm/google/roboto/Roboto-Regular-lf-t1.tfm" 1576101225 19008 67ad6049707629e9b36d2059b6db6cbd ""
  "/usr/share/texlive/texmf-dist/fonts/tfm/jknappen/ec/ecss1095.tfm" 1136768653 3584 8ece407347b270c252c46fdfaef5a9ef ""
  "/usr/share/texlive/texmf-dist/fonts/tfm/public/amsfonts/symbols/msam10.tfm" 1246382020 916 f87d7c45f9c908e672703b83b72241a3 ""
  "/usr/share/texlive/texmf-dist/fonts/tfm/public/amsfonts/symbols/msam5.tfm" 1246382020 924 9904cf1d39e9767e7a3622f2a125a565 ""
  "/usr/share/texlive/texmf-dist/fonts/tfm/public/amsfonts/symbols/msam7.tfm" 1246382020 928 2dc8d444221b7a635bb58038579b861a ""
  "/usr/share/texlive/texmf-dist/fonts/tfm/public/amsfonts/symbols/msbm10.tfm" 1246382020 908 2921f8a10601f252058503cc6570e581 ""
  "/usr/share/texlive/texmf-dist/fonts/tfm/public/amsfonts/symbols/msbm5.tfm" 1246382020 940 75ac932a52f80982a9f8ea75d03a34cf ""
  "/usr/share/texlive/texmf-dist/fonts/tfm/public/amsfonts/symbols/msbm7.tfm" 1246382020 940 228d6584342e91276bf566bcf9716b83 ""
  "/usr/share/texlive/texmf-dist/fonts/tfm/public/cm/cmr10.tfm" 1136768653 1296 45809c5a464d5f32c8f98ba97c1bb47f ""
  "/usr/share/texlive/texmf-dist/fonts/tfm/public/cm/cmss10.tfm" 1136768653 1316 b636689f1933f24d1294acdf6041daaa ""
  "/usr/share/texlive/texmf-dist/fonts/tfm/public/latex-fonts/lasy6.tfm" 1136768653 520 4889cce2180234b97cad636b6039c722 ""
  "/usr/share/texlive/texmf-dist/fonts/type1/google/roboto/Roboto-Bold.pfb" 1576101225 200063 9ca44329cc831cd6ca9d60e3d58e1c33 ""
  "/usr/share/texlive/texmf-dist/fonts/type1/google/roboto/Roboto-Italic.pfb" 1576101225 224430 4a69b9a2c1e1afa2cb2cc923e400973a ""
  "/usr/share/texlive/texmf-dist/fonts/type1/google/roboto/Roboto-Regular.pfb" 1576101225 212275 725f6c6c319ad18a129858989d00cf22 ""
  "/usr/share/texlive/texmf-dist/fonts/type1/public/amsfonts/symbols/msam10.pfb" 1248133631 31764 459c573c03a4949a528c2cc7f557e217 ""
  "/usr/share/texlive/texmf-dist/fonts/type1/urw/courier/ucrr8a.pfb" 1136849748 45758 19968a0990191524e34e1994d4a31cb6 ""
  "/usr/share/texlive/texmf-dist/fonts/vf/adobe/courier/pcrr8t.vf" 1136768653 2184 8475af1b9cfa983db5f46f5ed4b8f9f7 ""
  "/usr/share/texlive/texmf-dist/fonts/vf/adobe/courier/pcrrc8t.vf" 1136768653 3020 5e4a7afa9d62002c1ed5f65f882a16ff ""
  "/usr/share/texlive/texmf-dist/fonts/vf/google/roboto/Roboto-Bold-lf-sc-t1.vf" 1576101225 1756 4805da87387ebfced4ea4b64f4ae6f1d ""
  "/usr/share/texlive/texmf-dist/fonts/vf/google/roboto/Roboto-Bold-lf-t1.vf" 1576101225 1752 10f701f4d31b7e0acdc3f8b9dc833b2d ""
  "/usr/share/texlive/texmf-dist/fonts/vf/google/roboto/Roboto-Italic-lf-t1.vf" 1576101225 1752 6c68cdeafcce5558dbd9f2de68b5c2b5 ""
  "/usr/share/texlive/texmf-dist/fonts/vf/google/roboto/Roboto-Regular-lf-sc-t1.vf" 1576101225 1756 c1dbc7633a69f4f376ba8f94391be259 ""
  "/usr/share/texlive/texmf-dist/fonts/vf/google/roboto/Roboto-Regular-lf-t1.vf" 1576101225 1756 c18d4e19a33f0a1a1d05fe5eb9d0fa2c ""
  "/usr/share/texlive/texmf-dist/tex/context/base/mkii/supp-pdf.mkii" 1461363279 71627 94eb9990bed73c364d7f53f960cc8c5b ""
  "/usr/share/texlive/texmf-dist/tex/generic/atbegshi/atbegshi.sty" 1575674566 24708 5584a51a7101caf7e6bbf1fc27d8f7b1 ""
  "/usr/share/texlive/texmf-dist/tex/generic/babel-spanish/spanish.ldf" 1456955205 26223 0286ca123141cff8dd4956c4576d2ef4 ""
  "/usr/share/texlive/texmf-dist/tex/generic/babel/babel.def" 1611697649 117888 66b7eb0f9cd7bd253f76713fb2e2ee4a ""
  "/usr/share/texlive/texmf-dist/tex/generic/babel/babel.sty" 1611697649 37868 ba045e7d3943071ea1a8258e20cd3f09 ""
  "/usr/share/texlive/texmf-dist/tex/generic/babel/txtbabel.def" 1611697649 5230 84624d139fa443f96294434bccf82f8c ""
  "/usr/share/texlive/texmf-dist/tex/generic/bigintcalc/bigintcalc.sty" 1576625341 40635 c40361e206be584d448876bba8a64a3b ""
  "/usr/share/texlive/texmf-dist/tex/generic/bitset/bitset.sty" 1576016050 33961 6b5c75130e435b2bfdb9f480a09a39f9 ""
  "/usr/share/texlive/texmf-dist/tex/generic/etexcmds/etexcmds.sty" 1576625273 7734 b98cbb34c81f667027c1e3ebdbfce34b ""
  "/usr/share/texlive/texmf-dist/tex/generic/gettitlestring/gettitlestring.sty" 1576625223 8371 9d55b8bd010bc717624922fb3477d92e ""
  "/usr/share/texlive/texmf-dist/tex/generic/iftex/ifluatex.sty" 1572645307 492 1994775aa15b0d1289725a0b1bbc2d4c ""
  "/usr/share/texlive/texmf-dist/tex/generic/iftex/ifpdf.sty" 1572645307 480 5778104efadad304ced77548ca2184b1 ""
  "/usr/share/texlive/texmf-dist/tex/generic/iftex/iftex.sty" 1583617216 6501 4011d89d9621e0b0901138815ba5ff29 ""
  "/usr/share/texlive/texmf-dist/tex/generic/iftex/ifvtex.sty" 1572645307 1057 525c2192b5febbd8c1f662c9468335bb ""
  "/usr/share/texlive/texmf-dist/tex/generic/iftex/ifxetex.sty" 1572645307 488 4565444a3e75e59cb2702dc42e18f482 ""
  "/usr/share/texlive/texmf-dist/tex/generic/infwarerr/infwarerr.sty" 1575499628 8356 7bbb2c2373aa810be568c29e333da8ed ""
  "/usr/share/texlive/texmf-dist/tex/generic/intcalc/intcalc.sty" 1576625065 31769 002a487f55041f8e805cfbf6385ffd97 ""
  "/usr/share/texlive/texmf-dist/tex/generic/kvdefinekeys/kvdefinekeys.sty" 1576878844 5412 d5a2436094cd7be85769db90f29250a6 ""
  "/usr/share/texlive/texmf-dist/tex/generic/kvsetkeys/kvsetkeys.sty" 1576624944 13807 952b0226d4efca026f0e19dd266dcc22 ""
  "/usr/share/texlive/texmf-dist/tex/generic/ltxcmds/ltxcmds.sty" 1600895880 17859 4409f8f50cd365c68e684407e5350b1b ""
  "/usr/share/texlive/texmf-dist/tex/generic/pdfescape/pdfescape.sty" 1576015897 19007 15924f7228aca6c6d184b115f4baa231 ""
  "/usr/share/texlive/texmf-dist/tex/generic/pdftexcmds/pdftexcmds.sty" 1593379760 20089 80423eac55aa175305d35b49e04fe23b ""
  "/usr/share/texlive/texmf-dist/tex/generic/pgf/basiclayer/pgfcore.code.tex" 1601326656 992 855ff26741653ab54814101ca36e153c ""
  "/usr/share/texlive/texmf-dist/tex/generic/pgf/basiclayer/pgfcorearrows.code.tex" 1601326656 43820 1fef971b75380574ab35a0d37fd92608 ""
  "/usr/share/texlive/texmf-dist/tex/generic/pgf/basiclayer/pgfcoreexternal.code.tex" 1601326656 19324 f4e4c6403dd0f1605fd20ed22fa79dea ""
  "/usr/share/texlive/texmf-dist/tex/generic/pgf/basiclayer/pgfcoregraphicstate.code.tex" 1601326656 6038 ccb406740cc3f03bbfb58ad504fe8c27 ""
  "/usr/share/texlive/texmf-dist/tex/generic/pgf/basiclayer/pgfcoreimage.code.tex" 1601326656 6944 e12f8f7a7364ddf66f93ba30fb3a3742 ""
  "/usr/share/texlive/texmf-dist/tex/generic/pgf/basiclayer/pgfcorelayers.code.tex" 1601326656 4883 42daaf41e27c3735286e23e48d2d7af9 ""
  "/usr/share/texlive/texmf-dist/tex/generic/pgf/basiclayer/pgfcoreobjects.code.tex" 1601326656 2544 8c06d2a7f0f469616ac9e13db6d2f842 ""
  "/usr/share/texlive/texmf-dist/tex/generic/pgf/basiclayer/pgfcorepathconstruct.code.tex" 1601326656 44195 5e390c414de027626ca5e2df888fa68d ""
  "/usr/share/texlive/texmf-dist/tex/generic/pgf/basiclayer/pgfcorepathprocessing.code.tex" 1601326656 17311 2ef6b2e29e2fc6a2fc8d6d652176e257 ""
  "/usr/share/texlive/texmf-dist/tex/generic/pgf/basiclayer/pgfcorepathusage.code.tex" 1601326656 21302 788a79944eb22192a4929e46963a3067 ""
  "/usr/share/texlive/texmf-dist/tex/generic/pgf/basiclayer/pgfcorepatterns.code.tex" 1601326656 9690 01feb7cde25d4293ef36eef45123eb80 ""
  "/usr/share/texlive/texmf-dist/tex/generic/pgf/basiclayer/pgfcorepoints.code.tex" 1601326656 33335 dd1fa4814d4e51f18be97d88bf0da60c ""
  "/usr/share/texlive/texmf-dist/tex/generic/pgf/basiclayer/pgfcorequick.code.tex" 1601326656 2965 4c2b1f4e0826925746439038172e5d6f ""
  "/usr/share/texlive/texmf-dist/tex/generic/pgf/basiclayer/pgfcorerdf.code.tex" 1601326656 5196 2cc249e0ee7e03da5f5f6589257b1e5b ""
  "/usr/share/texlive/texmf-dist/tex/generic/pgf/basiclayer/pgfcorescopes.code.tex" 1601326656 20726 d4c8db1e2e53b72721d29916314a22ea ""
  "/usr/share/texlive/texmf-dist/tex/generic/pgf/basiclayer/pgfcoreshade.code.tex" 1601326656 35249 abd4adf948f960299a4b3d27c5dddf46 ""
  "/usr/share/texlive/texmf-dist/tex/generic/pgf/basiclayer/pgfcoretransformations.code.tex" 1601326656 21989 fdc867d05d228316de137a9fc5ec3bbe ""
  "/usr/share/texlive/texmf-dist/tex/generic/pgf/basiclayer/pgfcoretransparency.code.tex" 1601326656 8893 e851de2175338fdf7c17f3e091d94618 ""
  "/usr/share/texlive/texmf-dist/tex/generic/pgf/frontendlayer/tikz/libraries/tikzlibraryarrows.code.tex" 1601326656 319 225dfe354ba678ff3c194968db39d447 ""
  "/usr/share/texlive/texmf-dist/tex/generic/pgf/frontendlayer/tikz/libraries/tikzlibrarybackgrounds.code.tex" 1601326656 4572 4a19637ef65ce88ad2f2d5064b69541d ""
  "/usr/share/texlive/texmf-dist/tex/generic/pgf/frontendlayer/tikz/libraries/tikzlibrarydecorations.code.tex" 1601326656 5493 23e371e6fe3e7e42533d6d6c15662e0d ""
  "/usr/share/texlive/texmf-dist/tex/generic/pgf/frontendlayer/tikz/libraries/tikzlibrarydecorations.pathmorphing.code.tex" 1601326656 321 cdd11262840e01e25374a2d458f15e99 ""
  "/usr/share/texlive/texmf-dist/tex/generic/pgf/frontendlayer/tikz/libraries/tikzlibrarydecorations.pathreplacing.code.tex" 1601326656 1319 0b2de5126c6cbc295f0eb77f7344b34d ""
  "/usr/share/texlive/texmf-dist/tex/generic/pgf/frontendlayer/tikz/libraries/tikzlibrarydecorations.shapes.code.tex" 1601326656 315 5323c9e6a39bb8c3348c7ab5617a0a70 ""
  "/usr/share/texlive/texmf-dist/tex/generic/pgf/frontendlayer/tikz/libraries/tikzlibraryfit.code.tex" 1601326656 3643 e2a4190a002bc73963fd3145b05b6002 ""
  "/usr/share/texlive/texmf-dist/tex/generic/pgf/frontendlayer/tikz/libraries/tikzlibrarypatterns.code.tex" 1601326656 770 82e332cc9cc48e06b8070d74393a185a ""
  "/usr/share/texlive/texmf-dist/tex/generic/pgf/frontendlayer/tikz/libraries/tikzlibrarypositioning.code.tex" 1601326656 3937 3f208572dd82c71103831da976d74f1a ""
  "/usr/share/texlive/texmf-dist/tex/generic/pgf/frontendlayer/tikz/libraries/tikzlibraryshapes.arrows.code.tex" 1601326656 410 048d1174dabde96757a5387b8f23d968 ""
  "/usr/share/texlive/texmf-dist/tex/generic/pgf/frontendlayer/tikz/libraries/tikzlibraryshapes.callouts.code.tex" 1601326656 1201 8bd51e254d3ecf0cd2f21edd9ab6f1bb ""
  "/usr/share/texlive/texmf-dist/tex/generic/pgf/frontendlayer/tikz/libraries/tikzlibraryshapes.code.tex" 1601326656 494 8de62576191924285b021f4fc4292e16 ""
  "/usr/share/texlive/texmf-dist/tex/generic/pgf/frontendlayer/tikz/libraries/tikzlibraryshapes.geometric.code.tex" 1601326656 339 be0fe46d92a80e3385dd6a83511a46f2 ""
  "/usr/share/texlive/texmf-dist/tex/generic/pgf/frontendlayer/tikz/libraries/tikzlibraryshapes.misc.code.tex" 1601326656 329 ba6d5440f8c16779c2384e0614158266 ""
  "/usr/share/texlive/texmf-dist/tex/generic/pgf/frontendlayer/tikz/libraries/tikzlibraryshapes.multipart.code.tex" 1601326656 919 938802205ca20d7c36615aabc4d34be2 ""
  "/usr/share/texlive/texmf-dist/tex/generic/pgf/frontendlayer/tikz/libraries/tikzlibraryshapes.symbols.code.tex" 1601326656 475 4b4056fe07caa0603fede9a162fe666d ""
  "/usr/share/texlive/texmf-dist/tex/generic/pgf/frontendlayer/tikz/libraries/tikzlibrarysnakes.code.tex" 1601326656 2732 29a079fc99cf56bcf4aba1d043737f49 ""
  "/usr/share/texlive/texmf-dist/tex/generic/pgf/frontendlayer/tikz/libraries/tikzlibrarytopaths.code.tex" 1608933718 11518 738408f795261b70ce8dd47459171309 ""
  "/usr/share/texlive/texmf-dist/tex/generic/pgf/frontendlayer/tikz/libraries/tikzlibrarytrees.code.tex" 1601326656 3360 d7547ac810d5d8570c7b6f7c224d69da ""
  "/usr/share/texlive/texmf-dist/tex/generic/pgf/frontendlayer/tikz/tikz.code.tex" 1609106292 188275 555994923a0cb0c4aff9710e303272bb ""
  "/usr/share/texlive/texmf-dist/tex/generic/pgf/libraries/decorations/pgflibrarydecorations.pathmorphing.code.tex" 1601326656 8843 5533436db3e30fbad1e0440db6027dac ""
  "/usr/share/texlive/texmf-dist/tex/generic/pgf/libraries/decorations/pgflibrarydecorations.pathreplacing.code.tex" 1601326656 7474 f05a7223b140f230922562ac6a9fede5 ""
  "/usr/share/texlive/texmf-dist/tex/generic/pgf/libraries/decorations/pgflibrarydecorations.shapes.code.tex" 1601326656 16467 9dae0e3876f615b059bae4858b49eeb4 ""
  "/usr/share/texlive/texmf-dist/tex/generic/pgf/libraries/pgflibraryarrows.code.tex" 1601326656 31874 89148c383c49d4c72114a76fd0062299 ""
  "/usr/share/texlive/texmf-dist/tex/generic/pgf/libraries/pgflibrarypatterns.code.tex" 1601326656 7936 49e55444d57eb69a380c6baa35094828 ""
  "/usr/share/texlive/texmf-dist/tex/generic/pgf/libraries/pgflibraryplothandlers.code.tex" 1601326656 32995 ac577023e12c0e4bd8aa420b2e852d1a ""
  "/usr/share/texlive/texmf-dist/tex/generic/pgf/libraries/shapes/pgflibraryshapes.arrows.code.tex" 1601326656 91587 e30123381f7b9bcf1341c31c6be18b94 ""
  "/usr/share/texlive/texmf-dist/tex/generic/pgf/libraries/shapes/pgflibraryshapes.callouts.code.tex" 1601326656 33336 427c354e28a4802ffd781da22ae9f383 ""
  "/usr/share/texlive/texmf-dist/tex/generic/pgf/libraries/shapes/pgflibraryshapes.geometric.code.tex" 1606168878 160993 6a81d63e475cc43874b46ed32a0a37c8 ""
  "/usr/share/texlive/texmf-dist/tex/generic/pgf/libraries/shapes/pgflibraryshapes.misc.code.tex" 1601326656 46241 588910a2f1e0a99f2c3e14490683c20d ""
  "/usr/share/texlive/texmf-dist/tex/generic/pgf/libraries/shapes/pgflibraryshapes.multipart.code.tex" 1601326656 62281 aff261ef10ba6cbe8e3c872a38c05a61 ""
  "/usr/share/texlive/texmf-dist/tex/generic/pgf/libraries/shapes/pgflibraryshapes.symbols.code.tex" 1601326656 90515 e30b2c9c93aacc373e47917c0c2a48ed ""
  "/usr/share/texlive/texmf-dist/tex/generic/pgf/math/pgfint.code.tex" 1557692582 3063 8c415c68a0f3394e45cfeca0b65f6ee6 ""
  "/usr/share/texlive/texmf-dist/tex/generic/pgf/math/pgfmath.code.tex" 1601326656 521 8e224a7af69b7fee4451d1bf76b46654 ""
  "/usr/share/texlive/texmf-dist/tex/generic/pgf/math/pgfmathcalc.code.tex" 1601326656 13391 84d29568c13bdce4133ab4a214711112 ""
  "/usr/share/texlive/texmf-dist/tex/generic/pgf/math/pgfmathfloat.code.tex" 1601326656 104935 184ed87524e76d4957860df4ce0cd1c3 ""
  "/usr/share/texlive/texmf-dist/tex/generic/pgf/math/pgfmathfunctions.base.code.tex" 1601326656 10165 cec5fa73d49da442e56efc2d605ef154 ""
  "/usr/share/texlive/texmf-dist/tex/generic/pgf/math/pgfmathfunctions.basic.code.tex" 1601326656 28178 41c17713108e0795aac6fef3d275fbca ""
  "/usr/share/texlive/texmf-dist/tex/generic/pgf/math/pgfmathfunctions.code.tex" 1601326656 9989 c55967bf45126ff9b061fa2ca0c4694f ""
  "/usr/share/texlive/texmf-dist/tex/generic/pgf/math/pgfmathfunctions.comparison.code.tex" 1601326656 3865 ac538ab80c5cf82b345016e474786549 ""
  "/usr/share/texlive/texmf-dist/tex/generic/pgf/math/pgfmathfunctions.integerarithmetics.code.tex" 1557692582 3177 27d85c44fbfe09ff3b2cf2879e3ea434 ""
  "/usr/share/texlive/texmf-dist/tex/generic/pgf/math/pgfmathfunctions.misc.code.tex" 1601326656 10925 139ac69ce3e9a1892add56d0b818cf97 ""
  "/usr/share/texlive/texmf-dist/tex/generic/pgf/math/pgfmathfunctions.random.code.tex" 1608933718 7854 4176998eeefd8745ac6d2d4bd9c98451 ""
  "/usr/share/texlive/texmf-dist/tex/generic/pgf/math/pgfmathfunctions.round.code.tex" 1601326656 3379 781797a101f647bab82741a99944a229 ""
  "/usr/share/texlive/texmf-dist/tex/generic/pgf/math/pgfmathfunctions.trigonometric.code.tex" 1601326656 92405 f515f31275db273f97b9d8f52e1b0736 ""
  "/usr/share/texlive/texmf-dist/tex/generic/pgf/math/pgfmathparser.code.tex" 1601326656 37376 11cd75aac3da1c1b152b2848f30adc14 ""
  "/usr/share/texlive/texmf-dist/tex/generic/pgf/math/pgfmathutil.code.tex" 1601326656 8471 c2883569d03f69e8e1cabfef4999cfd7 ""
  "/usr/share/texlive/texmf-dist/tex/generic/pgf/modules/pgfmoduledecorations.code.tex" 1601326656 71722 aa25655703db0306f6401798e312b7b8 ""
  "/usr/share/texlive/texmf-dist/tex/generic/pgf/modules/pgfmodulematrix.code.tex" 1601326656 21201 08d231a2386e2b61d64641c50dc15abd ""
  "/usr/share/texlive/texmf-dist/tex/generic/pgf/modules/pgfmoduleplot.code.tex" 1601326656 16121 346f9013d34804439f7436ff6786cef7 ""
  "/usr/share/texlive/texmf-dist/tex/generic/pgf/modules/pgfmoduleshapes.code.tex" 1606168878 43260 c5ced91ac9ecf66ab0674d57bda14c1f ""
  "/usr/share/texlive/texmf-dist/tex/generic/pgf/pgf.revision.tex" 1609106292 465 311958b39a263956b78fd69c4bc8a85c ""
  "/usr/share/texlive/texmf-dist/tex/generic/pgf/systemlayer/pgf.cfg" 1601326656 926 2963ea0dcf6cc6c0a770b69ec46a477b ""
  "/usr/share/texlive/texmf-dist/tex/generic/pgf/systemlayer/pgfsys-common-pdf.def" 1601326656 5546 f3f24d7898386cb7daac70bdd2c4d6dc ""
  "/usr/share/texlive/texmf-dist/tex/generic/pgf/systemlayer/pgfsys-pdftex.def" 1601326656 12601 4786e597516eddd82097506db7cfa098 ""
  "/usr/share/texlive/texmf-dist/tex/generic/pgf/systemlayer/pgfsys.code.tex" 1601326656 60544 7aef020a49f066dc86a26e7719af2a98 ""
  "/usr/share/texlive/texmf-dist/tex/generic/pgf/systemlayer/pgfsysprotocol.code.tex" 1601326656 1896 b8e0ca0ac371d74c0ca05583f6313c91 ""
  "/usr/share/texlive/texmf-dist/tex/generic/pgf/systemlayer/pgfsyssoftpath.code.tex" 1601326656 7778 53c8b5623d80238f6a20aa1df1868e63 ""
  "/usr/share/texlive/texmf-dist/tex/generic/pgf/utilities/pgffor.code.tex" 1606168878 23997 a4bed72405fa644418bea7eac2887006 ""
  "/usr/share/texlive/texmf-dist/tex/generic/pgf/utilities/pgfkeys.code.tex" 1606168878 36938 2b5b0039ae51cc081ebb25d84b8a3408 ""
  "/usr/share/texlive/texmf-dist/tex/generic/pgf/utilities/pgfkeysfiltered.code.tex" 1601326656 37431 9abe862035de1b29c7a677f3205e3d9f ""
  "/usr/share/texlive/texmf-dist/tex/generic/pgf/utilities/pgfrcs.code.tex" 1601326656 4494 af17fb7efeafe423710479858e42fa7e ""
  "/usr/share/texlive/texmf-dist/tex/generic/pgf/utilities/pgfutil-common-lists.tex" 1601326656 7251 fb18c67117e09c64de82267e12cd8aa4 ""
  "/usr/share/texlive/texmf-dist/tex/generic/pgf/utilities/pgfutil-common.tex" 1601326656 28579 1cdb9cf41947e1e5889d97a41f9bb448 ""
  "/usr/share/texlive/texmf-dist/tex/generic/pgf/utilities/pgfutil-latex.def" 1606168878 6860 2503857fc7e280acd60acdfa6c8c90c4 ""
  "/usr/share/texlive/texmf-dist/tex/generic/ulem/ulem.sty" 1578692523 15682 94f55b803e160cf7fb6e4d77d07cfe1d ""
  "/usr/share/texlive/texmf-dist/tex/generic/uniquecounter/uniquecounter.sty" 1576624663 7008 f92eaa0a3872ed622bbf538217cd2ab7 ""
  "/usr/share/texlive/texmf-dist/tex/generic/xkeyval/xkeyval.tex" 1605910342 19231 3cbf682090baecad8e17a66b7a271ed1 ""
  "/usr/share/texlive/texmf-dist/tex/generic/xkeyval/xkvutils.tex" 1605910342 7677 cf3e6aa6a8d444f55327f61df80bfa0c ""
  "/usr/share/texlive/texmf-dist/tex/latex/amscls/amsthm.sty" 1591045760 12594 0d51ac3a545aaaa555021326ff22a6cc ""
  "/usr/share/texlive/texmf-dist/tex/latex/amsfonts/amsfonts.sty" 1359763108 5949 3f3fd50a8cc94c3d4cbf4fc66cd3df1c ""
  "/usr/share/texlive/texmf-dist/tex/latex/amsfonts/amssymb.sty" 1359763108 13829 94730e64147574077f8ecfea9bb69af4 ""
  "/usr/share/texlive/texmf-dist/tex/latex/amsfonts/umsa.fd" 1359763108 961 6518c6525a34feb5e8250ffa91731cff ""
  "/usr/share/texlive/texmf-dist/tex/latex/amsfonts/umsb.fd" 1359763108 961 d02606146ba5601b5645f987c92e6193 ""
  "/usr/share/texlive/texmf-dist/tex/latex/amsmath/amsbsy.sty" 1523134290 2211 ca7ce284ab93c8eecdc6029dc5ccbd73 ""
  "/usr/share/texlive/texmf-dist/tex/latex/amsmath/amsgen.sty" 1523134290 4161 7f6eb9092061a11f87d08ed13515b48d ""
  "/usr/share/texlive/texmf-dist/tex/latex/amsmath/amsmath.sty" 1601675358 87353 2c21ff5f2e32e1bf714e600924d810db ""
  "/usr/share/texlive/texmf-dist/tex/latex/amsmath/amsopn.sty" 1523134290 4116 32e6abd27229755a83a8b7f18e583890 ""
  "/usr/share/texlive/texmf-dist/tex/latex/amsmath/amstext.sty" 1523134290 2432 8ff93b1137020e8f21930562a874ae66 ""
  "/usr/share/texlive/texmf-dist/tex/latex/apacite/apacite.sty" 1374530685 72212 966b0b8d2be774cb1d3a7f97b253b725 ""
  "/usr/share/texlive/texmf-dist/tex/latex/apacite/spanish.apc" 1374530685 9680 288c60a2b42c1bd3c1f1275917444092 ""
  "/usr/share/texlive/texmf-dist/tex/latex/atveryend/atveryend.sty" 1576191570 19336 ce7ae9438967282886b3b036cfad1e4d ""
  "/usr/share/texlive/texmf-dist/tex/latex/auxhook/auxhook.sty" 1576625391 3935 57aa3c3e203a5c2effb4d2bd2efbc323 ""
  "/usr/share/texlive/texmf-dist/tex/latex/base/atbegshi-ltx.sty" 1609451599 2973 00085839f5881178c538db5970d3c38e ""
  "/usr/share/texlive/texmf-dist/tex/latex/base/atveryend-ltx.sty" 1610149055 2596 b3a02e33035865e9f0457e064d436fb8 ""
  "/usr/share/texlive/texmf-dist/tex/latex/base/fontenc.sty" 1601675358 4947 8cb7717f0cc771eca0fda15160c7fee9 ""
  "/usr/share/texlive/texmf-dist/tex/latex/base/inputenc.sty" 1601675358 5050 0d3b77275060ca09a40635b830c3c904 ""
  "/usr/share/texlive/texmf-dist/tex/latex/base/size11.clo" 1601675358 8465 2dd6985139dc15bc64ec71e501e76e40 ""
  "/usr/share/texlive/texmf-dist/tex/latex/base/textcomp.sty" 1581112666 2821 2c0928feafd5527387e29a1af774d030 ""
  "/usr/share/texlive/texmf-dist/tex/latex/beamer/beamer.cls" 1607984133 11587 ab82a63288bb4ed63da839a72d747d63 ""
  "/usr/share/texlive/texmf-dist/tex/latex/beamer/beamerbaseauxtemplates.sty" 1519256047 22666 933c376468a06913d7754fc13742473c ""
  "/usr/share/texlive/texmf-dist/tex/latex/beamer/beamerbaseboxes.sty" 1607984133 6800 3cf29b8a15e4627e1cd93b8424398db5 ""
  "/usr/share/texlive/texmf-dist/tex/latex/beamer/beamerbasecolor.sty" 1607984133 12834 a2e2edcc4215056529fd4e140e2ed26a ""
  "/usr/share/texlive/texmf-dist/tex/latex/beamer/beamerbasecompatibility.sty" 1595450012 25488 a64e8b1052107c216f9897094dea22cd ""
  "/usr/share/texlive/texmf-dist/tex/latex/beamer/beamerbasedecode.sty" 1563915504 9407 98317d4428bbbc4430035c0c0e3898d5 ""
  "/usr/share/texlive/texmf-dist/tex/latex/beamer/beamerbasefont.sty" 1607984133 13626 5a8efa954e5cf512c91c80f637cbf1f1 ""
  "/usr/share/texlive/texmf-dist/tex/latex/beamer/beamerbaseframe.sty" 1588799267 25162 9e33f2887dc316e20c319466b078d6eb ""
  "/usr/share/texlive/texmf-dist/tex/latex/beamer/beamerbaseframecomponents.sty" 1519256047 11898 264f0ae03dbfa791611c1821393bc0b9 ""
  "/usr/share/texlive/texmf-dist/tex/latex/beamer/beamerbaseframesize.sty" 1537478106 8800 544bcf1a583ad768d77d8b1d8f18a993 ""
  "/usr/share/texlive/texmf-dist/tex/latex/beamer/beamerbaselocalstructure.sty" 1607984133 17669 4a13cc2632d1b47a63706995a5dcdbd4 ""
  "/usr/share/texlive/texmf-dist/tex/latex/beamer/beamerbasemisc.sty" 1519256047 8313 358d4bb860bd9098eb24099f36b27af1 ""
  "/usr/share/texlive/texmf-dist/tex/latex/beamer/beamerbasemodes.sty" 1537478106 7493 bfb4c812c60867c1a9060a306fdd3434 ""
  "/usr/share/texlive/texmf-dist/tex/latex/beamer/beamerbasenavigation.sty" 1519256047 29020 6cae2187b2d2bc4f39b6bb5bddbcf031 ""
  "/usr/share/texlive/texmf-dist/tex/latex/beamer/beamerbasenotes.sty" 1595450012 5595 c0c140ec41fa3c9299aa6df19444c391 ""
  "/usr/share/texlive/texmf-dist/tex/latex/beamer/beamerbaseoptions.sty" 1500070590 1753 c10ec1df45e4b4c7ee05e306d23f95d7 ""
  "/usr/share/texlive/texmf-dist/tex/latex/beamer/beamerbaseoverlay.sty" 1595450012 27425 7f090822023c1cb57d609b70b5e7cc42 ""
  "/usr/share/texlive/texmf-dist/tex/latex/beamer/beamerbaserequires.sty" 1500070590 1593 48c3729494fa250d34789fd6af677f99 ""
  "/usr/share/texlive/texmf-dist/tex/latex/beamer/beamerbasesection.sty" 1535061494 13463 17ce9c69ca9d65b18f2625010a24b63a ""
  "/usr/share/texlive/texmf-dist/tex/latex/beamer/beamerbasetemplates.sty" 1500070590 5753 fbf8c2f7c7d6d5d1d2b900c353f094e8 ""
  "/usr/share/texlive/texmf-dist/tex/latex/beamer/beamerbasethemes.sty" 1500070590 1140 cdaff8d445bd2a4e7afdec5190a758c0 ""
  "/usr/share/texlive/texmf-dist/tex/latex/beamer/beamerbasetheorems.sty" 1500070590 4548 cdde9ae4b614ce5ea4cf7a232ceeb6a8 ""
  "/usr/share/texlive/texmf-dist/tex/latex/beamer/beamerbasetitle.sty" 1563915504 5356 d32dea458460fce4541d4f9aa765b876 ""
  "/usr/share/texlive/texmf-dist/tex/latex/beamer/beamerbasetoc.sty" 1543789491 7540 49f6c8ecb1955d667d1620733f995fe0 ""
  "/usr/share/texlive/texmf-dist/tex/latex/beamer/beamerbasetranslator.sty" 1483400771 637 685bd3d40aca2fa87965a39bc31aca7f ""
  "/usr/share/texlive/texmf-dist/tex/latex/beamer/beamerbasetwoscreens.sty" 1595450012 1808 098e1772761e9b4a016e74f1a4c1cb74 ""
  "/usr/share/texlive/texmf-dist/tex/latex/beamer/beamerbaseverbatim.sty" 1519256047 4026 1ba2c6a2acf275d63cb85d60d8597fe8 ""
  "/usr/share/texlive/texmf-dist/tex/latex/beamer/beamercolorthemebeaver.sty" 1513642141 1309 faa26b9e41a5448d9a4e00342a6a012a ""
  "/usr/share/texlive/texmf-dist/tex/latex/beamer/beamercolorthemedefault.sty" 1535061494 7089 c34bc77851d46db7348b94bd5e51168a ""
  "/usr/share/texlive/texmf-dist/tex/latex/beamer/beamercolorthemeorchid.sty" 1513642141 835 ac57517533d993c08f21ee9ac10445d7 ""
  "/usr/share/texlive/texmf-dist/tex/latex/beamer/beamercolorthemestructure.sty" 1513642141 823 42ac9f832cbf9adf20b81881a152902b ""
  "/usr/share/texlive/texmf-dist/tex/latex/beamer/beamercolorthemewhale.sty" 1513642141 1013 bbd3a76e797308a780fd7196c973ec2e ""
  "/usr/share/texlive/texmf-dist/tex/latex/beamer/beamerfontthemedefault.sty" 1519256047 4236 21e590075d6781cc58fee783316ee268 ""
  "/usr/share/texlive/texmf-dist/tex/latex/beamer/beamerfontthemestructurebold.sty" 1513642141 671 5193d9f73075cc9eeacadd801b6c8fc7 ""
  "/usr/share/texlive/texmf-dist/tex/latex/beamer/beamericonarticle.20.pdf" 1513642141 2958 4e0c4a6e994e5c4d9da11c477e927f0f ""
  "/usr/share/texlive/texmf-dist/tex/latex/beamer/beamericonarticle.pdf" 1513642141 2936 6cc3ef0682cbb62be8aa1b19f0a84ed6 ""
  "/usr/share/texlive/texmf-dist/tex/latex/beamer/beamericonbook.20.pdf" 1513642141 2734 0bcf939051dd2a936cdfe5982f7c233b ""
  "/usr/share/texlive/texmf-dist/tex/latex/beamer/beamericonbook.pdf" 1513642141 2667 7624351b441ffe4bd2d14e08fbcf063d ""
  "/usr/share/texlive/texmf-dist/tex/latex/beamer/beamericononline.20.pdf" 1513642141 24451 195d2c060e84f339954bc6d9b52131d7 ""
  "/usr/share/texlive/texmf-dist/tex/latex/beamer/beamericononline.pdf" 1513642141 24611 df07010540266b2b205b492a4d02e7e1 ""
  "/usr/share/texlive/texmf-dist/tex/latex/beamer/beamerinnerthemedefault.sty" 1519256047 13031 a33a15e4b12bfa976c11f59131636ea9 ""
  "/usr/share/texlive/texmf-dist/tex/latex/beamer/beamerinnerthemerectangles.sty" 1513642141 401 1ced509fadea50920c2c205d5990f03e ""
  "/usr/share/texlive/texmf-dist/tex/latex/beamer/beamerinnerthemerounded.sty" 1519256047 1012 55816d41ed72706aad1be90f5f2e88c2 ""
  "/usr/share/texlive/texmf-dist/tex/latex/beamer/beamerouterthemedefault.sty" 1588799267 6630 9731ba35f4c7921e311abc957adf446b ""
  "/usr/share/texlive/texmf-dist/tex/latex/beamer/beamerouterthemeinfolines.sty" 1535061494 2144 e0cf5aa9e45511f2752045d0ae67bb3b ""
  "/usr/share/texlive/texmf-dist/tex/latex/beamer/beamerouterthemeshadow.sty" 1607984133 2754 3a3dd6ed0c054849be137d77ff1a6fae ""
  "/usr/share/texlive/texmf-dist/tex/latex/beamer/beamerouterthemesplit.sty" 1569880143 2529 0eb42a55349c8bcca51fcc2557524899 ""
  "/usr/share/texlive/texmf-dist/tex/latex/beamer/beamerthemeCambridgeUS.sty" 1513642141 471 5262fe4ca9c3d7b149036107476eb26c ""
  "/usr/share/texlive/texmf-dist/tex/latex/beamer/beamerthemedefault.sty" 1513642141 355 75c98e7b8f427eb7c625ed391b140c5b ""
  "/usr/share/texlive/texmf-dist/tex/latex/beamer/beamerthemeshadow.sty" 1513642141 558 a065daa26b3fab585b47488e26c281cc ""
  "/usr/share/texlive/texmf-dist/tex/latex/beamer/beamerthemesplit.sty" 1513642141 396 34246ea89711669616e86205c21084db ""
  "/usr/share/texlive/texmf-dist/tex/latex/blindtext/blindtext.sty" 1325892463 47295 de48b7f8ebf4b54709a2f6b2c7106dd5 ""
  "/usr/share/texlive/texmf-dist/tex/latex/booktabs/booktabs.sty" 1579038678 6078 f1cb470c9199e7110a27851508ed7a5c ""
  "/usr/share/texlive/texmf-dist/tex/latex/cancel/cancel.sty" 1388445839 7592 dd751af313a16a0308545d5bfd7aaaa2 ""
  "/usr/share/texlive/texmf-dist/tex/latex/caption/caption-beamer.sto" 1598821824 4270 81a73a96ba83da9011c8b4eeec5d0332 ""
  "/usr/share/texlive/texmf-dist/tex/latex/caption/caption.sty" 1603745920 51746 e89c4da670ba533e6ab38e045ce6d1d9 ""
  "/usr/share/texlive/texmf-dist/tex/latex/caption/caption3.sty" 1603745920 67929 d50ae850e1d9604065e8337a75a41029 ""
  "/usr/share/texlive/texmf-dist/tex/latex/cite/cite.sty" 1425427964 26218 19edeff8cdc2bcb704e8051dc55eb5a7 ""
  "/usr/share/texlive/texmf-dist/tex/latex/colortbl/colortbl.sty" 1579991017 10793 d0af3aa11e27ae35ba4685b17597b122 ""
  "/usr/share/texlive/texmf-dist/tex/latex/eepic/eepic.sty" 1137110077 17662 c85d6c04287ee4592a15f6d02221d58f ""
  "/usr/share/texlive/texmf-dist/tex/latex/eepic/epic.sty" 1247274248 25873 0e813d2f6e266780f0cedef5eb5e2525 ""
  "/usr/share/texlive/texmf-dist/tex/latex/epstopdf-pkg/epstopdf-base.sty" 1579991033 13886 d1306dcf79a944f6988e688c1785f9ce ""
  "/usr/share/texlive/texmf-dist/tex/latex/eso-pic/eso-pic.sty" 1602711807 11772 8d0db0794e6aeb45348f60bbe3a3e093 ""
  "/usr/share/texlive/texmf-dist/tex/latex/etoolbox/etoolbox.sty" 1601931149 46845 3b58f70c6e861a13d927bff09d35ecbc ""
  "/usr/share/texlive/texmf-dist/tex/latex/everysel/everysel-2011-10-28.sty" 1611097190 4713 e2c43615329c83d785f28c2f83beaed5 ""
  "/usr/share/texlive/texmf-dist/tex/latex/everysel/everysel.sty" 1611267406 2884 f2be79b292643c74698be4bc8c72853f ""
  "/usr/share/texlive/texmf-dist/tex/latex/fancyvrb/fancyvrb.sty" 1611267390 43232 77215847fb982a414a0d843125e271d4 ""
  "/usr/share/texlive/texmf-dist/tex/latex/float/float.sty" 1137110151 6749 16d2656a1984957e674b149555f1ea1d ""
  "/usr/share/texlive/texmf-dist/tex/latex/fontaxes/fontaxes.sty" 1595539507 14310 41fdb35c51be792ddf00696848d0cfef ""
  "/usr/share/texlive/texmf-dist/tex/latex/geometry/geometry.sty" 1578002852 41601 9cf6c5257b1bc7af01a58859749dd37a ""
  "/usr/share/texlive/texmf-dist/tex/latex/graphics-cfg/color.cfg" 1459978653 1213 620bba36b25224fa9b7e1ccb4ecb76fd ""
  "/usr/share/texlive/texmf-dist/tex/latex/graphics-cfg/graphics.cfg" 1465944070 1224 978390e9c2234eab29404bc21b268d1e ""
  "/usr/share/texlive/texmf-dist/tex/latex/graphics-def/pdftex.def" 1601931164 19103 48d29b6e2a64cb717117ef65f107b404 ""
  "/usr/share/texlive/texmf-dist/tex/latex/graphics/color.sty" 1601675358 7102 5b27b7e61091c6128cd6300e21704e4b ""
  "/usr/share/texlive/texmf-dist/tex/latex/graphics/graphics.sty" 1601675358 18272 a8c6a275b34ab6717ceeb8fa04b104e2 ""
  "/usr/share/texlive/texmf-dist/tex/latex/graphics/graphicx.sty" 1601675358 7919 20fdfdd783821971c55bc8ee918cbe63 ""
  "/usr/share/texlive/texmf-dist/tex/latex/graphics/keyval.sty" 1580683321 2590 e3b24ff953e5b58d924f163d25380312 ""
  "/usr/share/texlive/texmf-dist/tex/latex/graphics/trig.sty" 1580683321 3976 d7fa7d81d2870d509d25b17d0245e735 ""
  "/usr/share/texlive/texmf-dist/tex/latex/hycolor/hycolor.sty" 1580250785 17914 4c28a13fc3d975e6e81c9bea1d697276 ""
  "/usr/share/texlive/texmf-dist/tex/latex/hyperref/hpdftex.def" 1589664343 50570 2e81797743231d9037b0cbe3436d74ba ""
  "/usr/share/texlive/texmf-dist/tex/latex/hyperref/hyperref.sty" 1589664343 236775 8ab18a05f69e6caef423fa59cb0af03b ""
  "/usr/share/texlive/texmf-dist/tex/latex/hyperref/nameref.sty" 1579642962 13244 0070bcab7b5a88187847128d22faf4d8 ""
  "/usr/share/texlive/texmf-dist/tex/latex/hyperref/pd1enc.def" 1589664343 14134 c11767c54bd7ecab56984ee4e4e3158c ""
  "/usr/share/texlive/texmf-dist/tex/latex/koma-script/scrlfile-hook.sty" 1601242066 9923 31d3db16e68a7aaf1a332070e86b06e8 ""
  "/usr/share/texlive/texmf-dist/tex/latex/koma-script/scrlfile.sty" 1601242066 2962 f87bece18d386f62887914a9e1742548 ""
  "/usr/share/texlive/texmf-dist/tex/latex/koma-script/scrlogo.sty" 1601242066 1954 c76cd0d2e16cfbd0b8ed1fac0f88e87e ""
  "/usr/share/texlive/texmf-dist/tex/latex/kvoptions/kvoptions.sty" 1602274869 22521 d2fceb764a442a2001d257ef11db7618 ""
  "/usr/share/texlive/texmf-dist/tex/latex/l3backend/l3backend-pdftex.def" 1611959857 27097 58278863d97b10ab86e334b8da33df7a ""
  "/usr/share/texlive/texmf-dist/tex/latex/l3kernel/expl3.sty" 1610315378 6209 031757bc8d0350c53dd99ad8ae4875eb ""
  "/usr/share/texlive/texmf-dist/tex/latex/l3packages/l3keys2e/l3keys2e.sty" 1603832142 4615 0436b95d48df75eb5f264ca6898802f6 ""
  "/usr/share/texlive/texmf-dist/tex/latex/l3packages/xparse/xparse-generic.tex" 1589555814 80141 edbf9289c99ff37db17116af7a3a423f ""
  "/usr/share/texlive/texmf-dist/tex/latex/l3packages/xparse/xparse.sty" 1603832142 5905 c6eb253894f4e808af476e034b49df36 ""
  "/usr/share/texlive/texmf-dist/tex/latex/latexconfig/epstopdf-sys.cfg" 1279039959 678 4792914a8f45be57bb98413425e4c7af ""
  "/usr/share/texlive/texmf-dist/tex/latex/letltxmacro/letltxmacro.sty" 1575499565 5766 13a9e8766c47f30327caf893ece86ac8 ""
  "/usr/share/texlive/texmf-dist/tex/latex/listings/listings.cfg" 1585170648 1830 e31effa752c61538383451ae21332364 ""
  "/usr/share/texlive/texmf-dist/tex/latex/listings/listings.sty" 1585170648 80964 64e57373f36316e4a09b517cbf1aba2e ""
  "/usr/share/texlive/texmf-dist/tex/latex/listings/lstlang1.sty" 1585170648 204271 bae5b2d457283e99567249c1990510be ""
  "/usr/share/texlive/texmf-dist/tex/latex/listings/lstmisc.sty" 1585170648 77022 ee25ce086f4a79d8cf73bac6f94c02a5 ""
  "/usr/share/texlive/texmf-dist/tex/latex/multirow/multirow.sty" 1611959532 6149 c6cd26d0cd8e83d8ecf4b81e1460a8be ""
  "/usr/share/texlive/texmf-dist/tex/latex/mweights/mweights.sty" 1490909540 4953 67f29a12ea26221103fce6bae3433e60 ""
  "/usr/share/texlive/texmf-dist/tex/latex/newfloat/newfloat.sty" 1574630664 28803 4aba56144ead46f9aef76000a36a663a ""
  "/usr/share/texlive/texmf-dist/tex/latex/pgf/basiclayer/pgf.sty" 1601326656 1090 bae35ef70b3168089ef166db3e66f5b2 ""
  "/usr/share/texlive/texmf-dist/tex/latex/pgf/basiclayer/pgfcore.sty" 1601326656 410 615550c46f918fcbee37641b02a862d9 ""
  "/usr/share/texlive/texmf-dist/tex/latex/pgf/compatibility/pgfcomp-version-0-65.sty" 1601326656 21013 f4ff83d25bb56552493b030f27c075ae ""
  "/usr/share/texlive/texmf-dist/tex/latex/pgf/compatibility/pgfcomp-version-1-18.sty" 1601326656 989 c49c8ae06d96f8b15869da7428047b1e ""
  "/usr/share/texlive/texmf-dist/tex/latex/pgf/frontendlayer/tikz.sty" 1601326656 339 c2e180022e3afdb99c7d0ea5ce469b7d ""
  "/usr/share/texlive/texmf-dist/tex/latex/pgf/math/pgfmath.sty" 1601326656 306 c56a323ca5bf9242f54474ced10fca71 ""
  "/usr/share/texlive/texmf-dist/tex/latex/pgf/systemlayer/pgfsys.sty" 1601326656 443 8c872229db56122037e86bcda49e14f3 ""
  "/usr/share/texlive/texmf-dist/tex/latex/pgf/utilities/pgffor.sty" 1601326656 348 ee405e64380c11319f0e249fed57e6c5 ""
  "/usr/share/texlive/texmf-dist/tex/latex/pgf/utilities/pgfkeys.sty" 1601326656 274 5ae372b7df79135d240456a1c6f2cf9a ""
  "/usr/share/texlive/texmf-dist/tex/latex/pgf/utilities/pgfrcs.sty" 1601326656 325 f9f16d12354225b7dd52a3321f085955 ""
  "/usr/share/texlive/texmf-dist/tex/latex/pgf/utilities/xxcolor.sty" 1601326656 2232 b9a67bccba736ed334b4b1a860a85c6f ""
  "/usr/share/texlive/texmf-dist/tex/latex/psnfss/t1pcr.fd" 1137110629 798 d5895e9edc628f2be019beb2c0ec66df ""
  "/usr/share/texlive/texmf-dist/tex/latex/psnfss/t1phv.fd" 1586716065 1483 47067fbe7c3ffed1ede7aaa7b8549d7a ""
  "/usr/share/texlive/texmf-dist/tex/latex/psnfss/times.sty" 1586716065 856 8e0e5c8cca7b18e0400f97f5a2b90a99 ""
  "/usr/share/texlive/texmf-dist/tex/latex/ragged2e/ragged2e.sty" 1564521318 9974 f2895af67a8ceb11ae60d6efbed7dc62 ""
  "/usr/share/texlive/texmf-dist/tex/latex/refcount/refcount.sty" 1576624809 9878 9e94e8fa600d95f9c7731bb21dfb67a4 ""
  "/usr/share/texlive/texmf-dist/tex/latex/rerunfilecheck/rerunfilecheck.sty" 1575674187 9715 b051d5b493d9fe5f4bc251462d039e5f ""
  "/usr/share/texlive/texmf-dist/tex/latex/roboto/OT1Roboto-LF.fd" 1576101225 11834 36196ae2d1e4c207ab90cf00e5daf1d6 ""
  "/usr/share/texlive/texmf-dist/tex/latex/roboto/T1Roboto-LF.fd" 1576101225 11681 dcea1e8989f271ab9d198f34689562d8 ""
  "/usr/share/texlive/texmf-dist/tex/latex/roboto/roboto.sty" 1576101225 14885 1a5132fb349578b9a7edd65f7ff1d141 ""
  "/usr/share/texlive/texmf-dist/tex/latex/sansmathaccent/sansmathaccent.sty" 1580595219 4282 5d27280ace1239baaa4a225df16125ff ""
  "/usr/share/texlive/texmf-dist/tex/latex/siunitx/siunitx-abbreviations.cfg" 1579124948 4745 793d4d5a808c37a7085f620706b56fe1 ""
  "/usr/share/texlive/texmf-dist/tex/latex/siunitx/siunitx.sty" 1582668387 273434 c3d90844d64bf82fded1b064359b4e14 ""
  "/usr/share/texlive/texmf-dist/tex/latex/subfig/subfig.sty" 1158586182 21369 9ef165ca6df8815c92e693146a376c92 ""
  "/usr/share/texlive/texmf-dist/tex/latex/tools/array.sty" 1601675358 12675 9a7bbb9e485cd81cdcc1d56212b088ff ""
  "/usr/share/texlive/texmf-dist/tex/latex/tools/enumerate.sty" 1580683321 3469 19b6cb25f21abe53fb90b9fe27615441 ""
  "/usr/share/texlive/texmf-dist/tex/latex/tools/multicol.sty" 1580683321 31532 04852e45d7c17cb384689d2f83b628d3 ""
  "/usr/share/texlive/texmf-dist/tex/latex/tools/xspace.sty" 1580683321 4546 3e6071704acf4f66392376b7b66ae02c ""
  "/usr/share/texlive/texmf-dist/tex/latex/translator/translator-basic-dictionary-English.dict" 1596662134 3535 7dc96051305a7e943219126c49c44cd6 ""
  "/usr/share/texlive/texmf-dist/tex/latex/translator/translator-bibliography-dictionary-English.dict" 1512078926 903 c6d17f0656e9e1abb172b4faebabd617 ""
  "/usr/share/texlive/texmf-dist/tex/latex/translator/translator-environment-dictionary-English.dict" 1512078926 433 bfb8d1c2c020defd2de8e5c276710094 ""
  "/usr/share/texlive/texmf-dist/tex/latex/translator/translator-months-dictionary-English.dict" 1512078926 1337 9a6c05e8f0c8b3c5f27cbd0e455cf475 ""
  "/usr/share/texlive/texmf-dist/tex/latex/translator/translator-numbers-dictionary-English.dict" 1512078926 1638 2bf1a1dea98f8a4d28033fce76e9cc67 ""
  "/usr/share/texlive/texmf-dist/tex/latex/translator/translator-theorem-dictionary-English.dict" 1512078926 3523 1f9d9b91f7d78b73e74c7e97bca30fb0 ""
  "/usr/share/texlive/texmf-dist/tex/latex/translator/translator.sty" 1596662134 8765 3368c4a5a4b5466261cafb836195e916 ""
  "/usr/share/texlive/texmf-dist/tex/latex/url/url.sty" 1388531844 12796 8edb7d69a20b857904dd0ea757c14ec9 ""
  "/usr/share/texlive/texmf-dist/tex/latex/xcolor/xcolor.sty" 1463002160 55589 34128738f682d033422ca125f82e5d62 ""
  "/usr/share/texlive/texmf-dist/tex/latex/xkeyval/xkeyval.sty" 1605910342 4902 efb3d66683a2da2a232f71e3a571a899 ""
  "/usr/share/texlive/texmf-dist/web2c/texmf.cnf" 1613593815 38841 799d1dd9682a55ce442e10c99777ecc1 ""
  "/usr/share/texmf/fonts/enc/dvips/lm/lm-mathit.enc" 1254938640 2405 5dcf2c1b967ee25cc46c58cd52244aed ""
  "/usr/share/texmf/fonts/enc/dvips/lm/lm-mathsy.enc" 1254938640 2840 216e6e45ad352e2456e1149f28885bee ""
  "/usr/share/texmf/fonts/tfm/public/lm/lmex10.tfm" 1254938640 992 ce925c9346c7613270a79afbee98c070 ""
  "/usr/share/texmf/fonts/tfm/public/lm/lmmi10.tfm" 1254938640 1528 6d36b2385e0ca062a654de6ac59cb34f ""
  "/usr/share/texmf/fonts/tfm/public/lm/lmmi5.tfm" 1254938640 1508 198f5b7b99b5769126de3a533f6fc334 ""
  "/usr/share/texmf/fonts/tfm/public/lm/lmmi6.tfm" 1254938640 1512 94a3fd88c6f27dbd9ecb46987e297a4e ""
  "/usr/share/texmf/fonts/tfm/public/lm/lmmi8.tfm" 1254938640 1520 a3fe5596932db2db2cbda300920dd4e9 ""
  "/usr/share/texmf/fonts/tfm/public/lm/lmsy10.tfm" 1254938640 1308 02cc510f9dd6012e5815d0c0ffbf6869 ""
  "/usr/share/texmf/fonts/tfm/public/lm/lmsy5.tfm" 1254938640 1296 54ed1a711e2303d5282575278e3620b0 ""
  "/usr/share/texmf/fonts/tfm/public/lm/lmsy6.tfm" 1254938640 1300 b0605d44c16c22d99dc001808e4f24ea ""
  "/usr/share/texmf/fonts/tfm/public/lm/lmsy8.tfm" 1254938640 1304 cdc9a17df9ef0d2dc320eff37bbab1c4 ""
  "/usr/share/texmf/fonts/type1/public/lm/lmmi6.pfb" 1254938640 31113 04b711c9a4c7f8cb4ed784c6fc4cc1c5 ""
  "/usr/share/texmf/fonts/type1/public/lm/lmmi8.pfb" 1254938640 30635 833ec815d446ec453a4913fc26d24cbc ""
  "/usr/share/texmf/fonts/type1/public/lm/lmsy8.pfb" 1254938640 27802 5c876bb2c4040caaf035d60bd74a86bd ""
  "/usr/share/texmf/tex/context/sample/common/sample.tex" 1461363279 372 aa5c67e26b0597ea5c31e846e6a586af ""
  "/usr/share/texmf/tex/latex/lm/lmodern.sty" 1256929440 1606 c17281c7cff2bbd7ff0173e1433487ec ""
  "/usr/share/texmf/tex/latex/lm/omllmm.fd" 1256929440 888 44447a3a3af84a22454ef89500942d93 ""
  "/usr/share/texmf/tex/latex/lm/omslmsy.fd" 1256929440 805 af340a8260c447aa315cfc740ff0152f ""
  "/usr/share/texmf/tex/latex/lm/omxlmex.fd" 1256929440 566 a94661f7b66063f191960bb7935b6ba2 ""
  "/usr/share/texmf/web2c/texmf.cnf" 1613593815 38841 799d1dd9682a55ce442e10c99777ecc1 ""
  "/var/lib/texmf/fonts/map/pdftex/updmap/pdftex.map" 1625336313 5160710 ecf427ae8fa19139d8691f526e47bb9b ""
  "/var/lib/texmf/web2c/pdftex/pdflatex.fmt" 1625336341 2570737 3428ca19cfbca59d55e147aab4891f9c ""
  "Propuesta.aux" 1630183450 12434 0cbc959ac44fa1b7f80f26154c0e21d2 "pdflatex"
  "Propuesta.bbl" 1630172668 9000 f0a1c980cf1d353000d3357fc895103f "bibtex Propuesta"
  "Propuesta.nav" 1630183450 4058 af7df3ee7760a2761d76718952edfef7 "pdflatex"
  "Propuesta.out" 1630183450 332 a7c987704efb25b0c8e726f03dba1ba0 "pdflatex"
  "Propuesta.tex" 1630183440 28266 543a31867fa58568d2c33bc9b30cd4e9 ""
  "Propuesta.toc" 1630183450 305 848c60a2db11a5f6d09c4d84042f8038 "pdflatex"
  "bayes.png" 1628998541 51406 c054661eb1ffab92dd48e84f4135a5d9 ""
  "dataaugmen.png" 1628795755 576432 a45318e3657150ebe60409247c94b1e7 ""
  "dataset.png" 1629829833 30648 8ff072d8e9bb9420c428b40f737b20de ""
  "flujo1.jpeg" 1620758637 168068 7d993e4db40e3637cf4f79c90cae065a ""
  "fondoula43.jpg" 1584706646 584672 004c2a5b6cef588d7d33d878e4df0438 ""
  "forest.png" 1628999994 140573 f252369050ac305f00cc74f43909c6d6 ""
  "frascos.png" 1620746409 511905 06e39410864a14e08730d7802209557a ""
  "gantt.png" 1628724716 168251 991a46d8f7dbc2fc02231ac8912d78b0 ""
  "image.png" 1629833754 349935 78dc63c216bbcb3bbc1a468622bc9b22 ""
  "logistic.png" 1628996506 77525 81819592695dbbc47b623e3cb68ea972 ""
  "micro.png" 1629743008 40878 6f1df3fa526e0029caf39fa10d0f7987 ""
  "obclass.png" 1628994641 205520 a56a07bbfb940de6c1492366c8cc9d2d ""
  "parasite.png" 1630172413 179329 f0ebb9f39e354ea2d17617a5af68255d ""
  "renal.jpeg" 1629846918 443603 82a2a52583bc9ff8ff302a0f75f1752d ""
  "sample.png" 1629846789 541317 2a2d11675851e2c3bb80ff72cf88573d ""
  "sigmoid.png" 1628996707 27532 2b2999e53c716502891ea615b08e006e ""
  "tree.png" 1628967339 56847 dbe1139b3bb91feefc9d48d90b51e25e ""
  "vision.jpeg" 1629846837 60057 6dd263316b0634a9d27e2b3d4fddb977 ""
  (generated)
  "Propuesta.pdf"
  "Propuesta.out"
  "Propuesta.snm"
  "Propuesta.toc"
  "Propuesta.log"
  "Propuesta.nav"
  "Propuesta.aux"
